<svg xmlns="http://www.w3.org/2000/svg" width="15.822" height="15.822" viewBox="0 0 15.822 15.822">
  <defs>
    <style>
      .cls-1 {
        fill: #282828;
      }
    </style>
  </defs>
  <path id="Instagram" class="cls-1" d="M11.108,15.822h-6.4A4.719,4.719,0,0,1,0,11.108v-6.4A4.719,4.719,0,0,1,4.713,0h6.4a4.719,4.719,0,0,1,4.713,4.713v6.4A4.719,4.719,0,0,1,11.108,15.822Zm-6.4-14.23A3.125,3.125,0,0,0,1.591,4.713v6.4A3.125,3.125,0,0,0,4.713,14.23h6.4a3.125,3.125,0,0,0,3.121-3.121v-6.4a3.125,3.125,0,0,0-3.121-3.122ZM7.911,12A4.092,4.092,0,1,1,12,7.911,4.1,4.1,0,0,1,7.911,12Zm0-6.592a2.5,2.5,0,1,0,2.5,2.5A2.5,2.5,0,0,0,7.911,5.411Zm4.1-.58a.981.981,0,1,1,.981-.98A.982.982,0,0,1,12.011,4.83Z"/>
</svg>
