<svg xmlns="http://www.w3.org/2000/svg" viewBox="0 0 36 36">
  <circle
    stroke="#e7e7e7"
    fill="none"
    cx="18"
    cy="18"
    r="18"
    transform="translate(0.139)"
  />
  <g transform="translate(9.139 9)">
    <path
      fill="#282828"
      d="M15.5,4H3.5A1.5,1.5,0,0,0,2.007,5.5L2,14.5A1.5,1.5,0,0,0,3.5,16h12A1.5,1.5,0,0,0,17,14.5v-9A1.5,1.5,0,0,0,15.5,4Zm0,3-6,3.75L3.5,7V5.5l6,3.75,6-3.75Z"
      transform="translate(-0.5 -1)"
    />
    <path fill="none" d="M0,0H18V18H0Z" />
  </g>
</svg>
