<svg xmlns="http://www.w3.org/2000/svg" width="34" height="34" viewBox="0 0 34 34">
  <defs>
    <style>
      .cls-1, .cls-3 {
        fill: none;
      }

      .cls-1 {
        stroke: #fff;
        opacity: 0.6;
      }

      .cls-2 {
        fill: #fff;
      }

      .cls-4 {
        stroke: none;
      }
    </style>
  </defs>
  <g id="x" transform="translate(-1212 -47)">
    <g id="Ellipse_143" data-name="Ellipse 143" class="cls-1" transform="translate(1212 47)">
      <circle class="cls-4" cx="17" cy="17" r="17"/>
      <circle class="cls-3" cx="17" cy="17" r="16.5"/>
    </g>
    <g id="baseline-close-24px" transform="translate(1220 55.5)">
      <path id="Path_1998" data-name="Path 1998" class="cls-2" d="M15.5,6.057,14.442,5,10.25,9.192,6.057,5,5,6.057,9.192,10.25,5,14.442,6.057,15.5l4.192-4.193L14.442,15.5,15.5,14.442,11.307,10.25Z" transform="translate(-1.25 -1.25)"/>
      <path id="Path_1999" data-name="Path 1999" class="cls-3" d="M0,0H18V18H0Z"/>
    </g>
  </g>
</svg>
