<!-- original viewBox="0 0 16.208 12.842 -->
<svg xmlns="http://www.w3.org/2000/svg" viewBox="-8 -10 32 32">
  <circle fill="#e7e7e7" cx="8" cy="6" r="16" />
  <path
    fill="#282828"
    d="M8.1,12.842h0c-.042,0-4.235-.031-5.505-.175-.068-.016-.151-.029-.248-.043A2.255,2.255,0,0,1,.81,11.879a4.446,4.446,0,0,1-.643-1.81C.166,10.055,0,8.591,0,7.122V5.749C0,4.281.166,2.787.168,2.773A4.042,4.042,0,0,1,.81.963,2.189,2.189,0,0,1,2.383.209h0l.045,0C4.668.031,8.07,0,8.1,0s3.436.031,5.673.2l.077.007A2.047,2.047,0,0,1,15.4.963a4.446,4.446,0,0,1,.643,1.81c0,.015.168,1.507.168,2.977V7.122c0,1.44-.166,2.933-.168,2.948a4.447,4.447,0,0,1-.643,1.81,2.189,2.189,0,0,1-1.572.754h0l-.045,0C11.54,12.839,8.138,12.842,8.1,12.842ZM6.148,3.473V9.807l5.31-3.094Z"
  />
</svg>
